 IS | 4.58 | 2 | 293.10 | 146.55 | 
 IS | 2.84 | 4 | 472.35 | 118.09 | 
 IS | 1.53 | 8 | 874.86 | 109.36 | 
 IS | 0.82 | 16 | 1627.41 | 101.71 | 
 IS | 3.69 | 4 | 363.57 | 90.89 | 
 IS | 2.51 | 8 | 534.63 | 66.83 | 
 IS | 1.86 | 16 | 722.84 | 45.18 | 
 IS | 1.52 | 32 | 880.87 | 27.53 | 
 IS | 2.19 | 8 | 612.86 | 76.61 | 
 IS | 1.53 | 16 | 878.25 | 54.89 | 
 IS | 1.22 | 32 | 1097.95 | 34.31 | 
 IS | 1.11 | 64 | 1205.27 | 18.83 | 
 IS | 1.11 | 16 | 1207.90 | 75.49 | 
 IS | 0.86 | 32 | 1559.33 | 48.73 | 
 IS | 0.85 | 64 | 1584.14 | 24.75 | 
 IS | 6.40 | 128 | 209.82 | 1.64 | 
 IS | 8.70 | 1 | 154.23 | 154.23 | 
 EP | 99.11 | 2 | 86.67 | 43.34 | 
 EP | 51.35 | 4 | 167.28 | 41.82 | 
 EP | 26.53 | 8 | 323.78 | 40.47 | 
 EP | 14.54 | 16 | 590.78 | 36.92 | 
 EP | 48.88 | 4 | 175.73 | 43.93 | 
 EP | 25.95 | 8 | 330.97 | 41.37 | 
 EP | 13.31 | 16 | 645.48 | 40.34 | 
 EP | 7.26 | 32 | 1183.70 | 36.99 | 
 EP | 24.62 | 8 | 348.94 | 43.62 | 
 EP | 12.86 | 16 | 667.92 | 41.74 | 
 EP | 6.70 | 32 | 1282.99 | 40.09 | 
 EP | 3.67 | 64 | 2338.16 | 36.53 | 
 EP | 12.25 | 16 | 700.97 | 43.81 | 
 EP | 6.50 | 32 | 1320.95 | 41.28 | 
 EP | 3.36 | 64 | 2553.58 | 39.90 | 
 EP | 1.86 | 128 | 4630.68 | 36.18 | 
 EP | 195.20 | 1 | 44.01 | 44.01 | 
 CG | 59.47 | 2 | 2410.52 | 1205.26 | 
 CG | 31.23 | 4 | 4589.59 | 1147.40 | 
 CG | 12.99 | 8 | 11032.00 | 1379.00 | 
 CG | 7.80 | 16 | 18382.34 | 1148.90 | 
 CG | 36.56 | 4 | 3920.79 | 980.20 | 
 CG | 14.81 | 8 | 9682.33 | 1210.29 | 
 CG | 9.81 | 16 | 14605.52 | 912.84 | 
 CG | 6.94 | 32 | 20643.12 | 645.10 | 
 CG | 15.58 | 8 | 9202.17 | 1150.27 | 
 CG | 9.93 | 16 | 14429.31 | 901.83 | 
 CG | 6.85 | 32 | 20930.30 | 654.07 | 
 CG | 6.92 | 64 | 20723.07 | 323.80 | 
 CG | 9.90 | 16 | 14483.87 | 905.24 | 
 CG | 7.22 | 32 | 19843.15 | 620.10 | 
 CG | 5.53 | 64 | 25899.66 | 404.68 | 
 CG | 4.57 | 128 | 31383.78 | 245.19 | 
 CG | 217.91 | 1 | 657.84 | 657.84 | 
 MG | 19.20 | 2 | 8110.25 | 4055.13 | 
 MG | 9.72 | 4 | 16025.70 | 4006.42 | 
 MG | 4.77 | 8 | 32633.81 | 4079.23 | 
 MG | 3.08 | 16 | 50615.88 | 3163.49 | 
 MG | 9.94 | 4 | 15659.10 | 3914.77 | 
 MG | 5.22 | 8 | 29843.00 | 3730.37 | 
 MG | 2.93 | 16 | 53169.05 | 3323.07 | 
 MG | 1.91 | 32 | 81726.24 | 2553.95 | 
 MG | 4.93 | 8 | 31607.71 | 3950.96 | 
 MG | 3.00 | 16 | 51933.45 | 3245.84 | 
 MG | 1.77 | 32 | 88086.14 | 2752.69 | 
 MG | 1.07 | 64 | 145152.14 | 2268.00 | 
 MG | 2.78 | 16 | 56034.32 | 3502.14 | 
 MG | 1.60 | 32 | 97569.83 | 3049.06 | 
 MG | 0.89 | 64 | 175320.04 | 2739.38 | 
 MG | 0.77 | 128 | 201119.96 | 1571.25 | 
 MG | 35.33 | 1 | 4407.41 | 4407.41 | 
 FT | 95.41 | 2 | 4154.70 | 2077.35 | 
 FT | 49.90 | 4 | 7943.12 | 1985.78 | 
 FT | 26.34 | 8 | 15050.35 | 1881.29 | 
 FT | 15.04 | 16 | 26347.37 | 1646.71 | 
 FT | 57.37 | 4 | 6909.63 | 1727.41 | 
 FT | 34.05 | 8 | 11640.15 | 1455.02 | 
 FT | 21.90 | 16 | 18100.66 | 1131.29 | 
 FT | 16.33 | 32 | 24266.60 | 758.33 | 
 FT | 31.20 | 8 | 12706.72 | 1588.34 | 
 FT | 19.10 | 16 | 20750.44 | 1296.90 | 
 FT | 13.98 | 32 | 28350.13 | 885.94 | 
 FT | 11.17 | 64 | 35483.43 | 554.43 | 
 FT | 16.34 | 16 | 24252.30 | 1515.77 | 
 FT | 11.14 | 32 | 35568.70 | 1111.52 | 
 FT | 8.28 | 64 | 47889.10 | 748.27 | 
 FT | 8.85 | 128 | 44767.03 | 349.74 | 
 FT | 169.01 | 1 | 2345.36 | 2345.36 | 
